{
	"status": "SUCCESS",
	"message": "Yeh Lo Mock API! Aish Karo!",
	"dashboardData": [{
		"title": "Store Stock",
		"count": 35,
		"data": [{
			"name": "Stocks Added Last Week",
			"count": 3,
			"filter": [{
				"value": "7",
				"column": "stock_age",
				"operator": "<="
			}]
		}, {
			"name": "Stocks without image",
			"count": 2,
			"filter": [{
				"value": "0",
				"column": "photo_count",
				"operator": "="
			}]
		}]
	}, {
		"title": "Booked Stock",
		"count": 200,
		"data": [{
			"name": "Not Sold with in one week",
			"count": 355,
			"filter": [{
				"value": "2019-06-28",
				"column": "book_date",
				"operator": "<="
			}, {
				"operator": "=",
				"value": "true",
				"column": "is_booked"
			}]
		}, {
			"name": "Not Sold with in 2 weeks.",
			"count": 355,
			"filter": [{
				"value": "2019-06-21",
				"column": "book_date",
				"operator": "<="
			}, {
				"operator": "=",
				"value": "true",
				"column": "is_booked"
			}]
		}]
	}, {
		"title": "Offload Stock",
		"Count": "45"
	}]
}