{
	"client_id" : "17166d94-05f4-4cd1-bc34-8cebe5e94674",
	"redirect_uri" : "msauth://com.mfcwl.mfcdealer/callback",
	"broker_redirect_uri_registered": false,
	"account_mode": "SINGLE",
	"authorities" : [
		{
			"type": "AAD",
			"authority_url": "https://login.microsoftonline.com/common",
			"audience": {
				"type": "AzureADandPersonalMicrosoftAccount"
			},
			"default": true
		}
	]
}

